DATA607: Sentiment Analysis
…
## Warning: package 'tidytext' was built under R version 4.0.3

library(tidyr)
library(janeaustenr)

## Warning: package 'janeaustenr' was built under R version 4.0.3

library(textdata) # https://rdrr.io/cran/textdata/f/README.md

## Warning: package 'textdata' was built under R version 4.0.3

get_sentiments("afinn") #general purpose lexions from Finn Arup Nielsen, AFINN is a lexicon of English words rated for valence with an integer between minus five (negative) and plus five (positive). 

## # A tibble: 2,477 x 2
##    word       value
##    <chr>      <dbl>
##  1 abandon       -2
##  2 abandoned     -2
##  3 abandons      -2
##  4 abducted      -2
##  5 abduction     -2
##  6 abductions    -2
##  7 abhor         -3
##  8 abhorred      -3
##  9 abhorrent     -3
## 10 abhors        -3
## # ... with 2,467 more rows
…
# Now that the text is in a tidy format with one word per row, we are ready to do the sentiment analysis
nrc_joy <- get_sentiments("nrc") %>%  #required download from Mohammad, Saif M. and Turney, Peter D.
  filter(sentiment == "joy") # lets use the NRC lexicon and filter() for the joy words

tidy_books %>%  #by grouping filter(), inner_join, the data frame with the text from the books for the words from Emma  to perform the sentiment analysis.
  filter(book == "Emma") %>%  #
  inner_join(nrc_joy) %>%
  count(word, sort = TRUE) # the most common joy words in Emma?

## Joining, by = "word"

## # A tibble: 303 x 2
##    word        n
##    <chr>   <int>
##  1 good      359
##  2 young     192
##  3 friend    166
##  4 hope      143
##  5 happy     125
##  6 love      117
##  7 deal       92
##  8 found      92
##  9 present    89
## 10 kind       82
## # ... with 293 more rows
…
#We can see in Figure 2.2 how the plot of each novel changes toward more positive or negative sentiment over the trajectory of the story.

Comparing the three sentiment dictionaries

Lets use all three sentiment lexicons and examine how the sentiment changes across the narrative arc of Pride and Prejudice.

#lets use filter() to choose only the words from the one novel we are interested in.
pride_prejudice <- tidy_books %>%
  filter(book == "Pride & Prejudice")
pride_prejudice

## # A tibble: 122,204 x 4
##    book              linenumber chapter word     
##    <fct>                  <int>   <int> <chr>    
##  1 Pride & Prejudice          1       0 pride    
##  2 Pride & Prejudice          1       0 and      
##  3 Pride & Prejudice          1       0 prejudice
##  4 Pride & Prejudice          3       0 by       
##  5 Pride & Prejudice          3       0 jane     
##  6 Pride & Prejudice          3       0 austen   
##  7 Pride & Prejudice          7       1 chapter  
##  8 Pride & Prejudice          7       1 1        
##  9 Pride & Prejudice         10       1 it       
## 10 Pride & Prejudice         10       1 is       
## # ... with 122,194 more rows
…
Figure 2.4: Words that contribute to positive and negative sentiment in Jane Austens novels Figure 2.4 lets us spot an anomaly in the sentiment analysis; the word miss is coded as negative but it is used as a title for young, unmarried women in Jane Austens works. If it were appropriate for our purposes, we could easily add miss to a custom stop-words list using bind_rows(). We could implement that with a strategy such as this.

custom_stop_words <- bind_rows(
  tibble(
    word = c("miss"),
    lexicon = c("custom")
  ),
  stop_words
)

custom_stop_words

## # A tibble: 1,150 x 2
##    word        lexicon
##    <chr>       <chr>  
##  1 miss        custom 
##  2 a           SMART  
##  3 a's         SMART  
##  4 able        SMART  
##  5 about       SMART  
##  6 above       SMART  
##  7 according   SMART  
##  8 accordingly SMART  
##  9 across      SMART  
## 10 actually    SMART  
## # ... with 1,140 more rows
…
